{
  "shell_port": 59877,
  "iopub_port": 36183,
  "stdin_port": 43809,
  "control_port": 33037,
  "hb_port": 47701,
  "ip": "127.0.0.1",
  "key": "6609bd68-83d7e8559ff2f07c108a4d5d",
  "transport": "tcp",
  "signature_scheme": "hmac-sha256",
  "kernel_name": ""
}