{
  "base_url": "/user/fei_j-mt15-2021-tp3-u16q2e0u/",
  "hostname": "0.0.0.0",
  "notebook_dir": "/home/jovyan",
  "password": false,
  "pid": 18,
  "port": 8888,
  "secure": false,
  "sock": "",
  "token": "eSIPqL2nQnal0cDsg8V4sA",
  "url": "http://0.0.0.0:8888/user/fei_j-mt15-2021-tp3-u16q2e0u/"
}